…
    ##      A    B
    ## 1 <NA> <NA>
    ## 2    a    b
    ## 3    a    d
    ## 4    b    c
    ## 5 <NA> <NA>

``` r
ButteLog %>% 
    dplyr::mutate(activity = 
                      stringr::str_match_all(string = original_record,
                                                      pattern = "[A-Z]"))
```

    ## # A tibble: 169 x 4
    ##    original_record                                                         
    ##    <chr>                                                                   
    ##  1 07:52    FAMILY DISTURB-MISC-NOT PC415                           190410…
    ##  2 08:02    EXTRA PATROL-MISCELLANEOUS                              190410…
    ##  3 08:15    TRANSFERRED CALL-ALLIED AGENCY                          190410…
    ##  4 08:22    MISCELLANEOUS-INFORMATION                               190410…
    ##  5 08:28    TRANSFERRED CALL-ALLIED AGENCY                          190410…
    ##  6 08:29    TRANSFERRED CALL-ALLIED AGENCY                          190410…
    ##  7 08:40    911 HANGUP-OPEN LINE-UNKNOWN TROUBLE                    190410…
    ##  8 08:42    TRANSFERRED CALL-ALLIED AGENCY                          190410…
    ##  9 08:52    TRANSFERRED CALL-ALLIED AGENCY                          190410…
    ## 10 08:55    TRANSFERRED CALL-ALLIED AGENCY                          190410…
    ##    call_time description                                       activity    
    ##    <chr>     <chr>                                             <list>      
    ##  1 07:52     "    FAMILY DISTURB-MISC-NOT PC415              … <chr [158 ×…
    ##  2 08:02     "    EXTRA PATROL-MISCELLANEOUS                 … <chr [64 × …
    ##  3 08:15     "    TRANSFERRED CALL-ALLIED AGENCY             … <chr [141 ×…
    ##  4 08:22     "    MISCELLANEOUS-INFORMATION                  … <chr [82 × …
    ##  5 08:28     "    TRANSFERRED CALL-ALLIED AGENCY             … <chr [114 ×…
    ##  6 08:29     "    TRANSFERRED CALL-ALLIED AGENCY             … <chr [80 × …
    ##  7 08:40     "    911 HANGUP-OPEN LINE-UNKNOWN TROUBLE       … <chr [73 × …
    ##  8 08:42     "    TRANSFERRED CALL-ALLIED AGENCY             … <chr [91 × …
    ##  9 08:52     "    TRANSFERRED CALL-ALLIED AGENCY             … <chr [59 × …
    ## 10 08:55     "    TRANSFERRED CALL-ALLIED AGENCY             … <chr [84 × …
    ## # … with 159 more rows
…
