…
murders_final <- murders_spread %>%
unite(
    city_state, 
    city, 
    state) %>% 
        arrange(
            city_state
            ) %>% 
            select(
                -(text)
                )
murders_final
```

    ## # A tibble: 83 x 4
    ##    city_state             change `2014` `2015`
    ##    <chr>                   <int>  <int>  <int>
    ##  1 Albuquerque_New Mexico     13     30     43
    ##  2 Anaheim_California          4     14     18
    ##  3 Anchorage_Alaska           14     12     26
    ##  4 Arlington_Texas          -  5     13      8
    ##  5 Atlanta_Georgia             1     93     94
    ##  6 Aurora_Colorado            13     11     24
    ##  7 Austin_Texas             -  9     32     23
    ##  8 Bakersfield_California      5     17     22
    ##  9 Baltimore_Maryland        133    211    344
    ## 10 Boston_Massachusetts     - 15     53     38
    ## # ... with 73 more rows
…
Obviously, the barplot is not visualizing the "change" column sorted low to high. To do that, try your hand with `arrange()`.

``` r
murders_final_sort <- murders_final %>% 
  arrange(
    change)
murders_final_sort
```

    ## # A tibble: 83 x 4
    ##    city_state              change `2014` `2015`
    ##    <chr>                    <int>  <int>  <int>
    ##  1 Buffalo_New York           -19     60     41
    ##  2 Boston_Massachusetts       -15     53     38
    ##  3 Pittsburgh_Pennsylvania    -12     69     57
    ##  4 Corpus Christi_Texas       -10     27     17
    ##  5 Austin_Texas               - 9     32     23
    ##  6 San Antonio_Texas          - 9    103     94
    ##  7 Fresno_California          - 8     47     39
    ##  8 Mobile_Alabama             - 7     31     24
    ##  9 Columbus_Ohio              - 6     83     77
    ## 10 Honolulu_Hawaii            - 6     21     15
    ## # ... with 73 more rows
…
