…
## Install and load the package

Using RStudio, we’ll install and then load the `fivethirtyeight`
package, as well as `tidyr`, `tibble` and `dplyr` and then call
`murder_2015_final`

``` r
library(fivethirtyeight)
library(tidyr)
library(tibble)
library(dplyr)
murder_2015_final
```

    ## # A tibble: 83 x 5
    ##    city         state        murders_2014 murders_2015 change
    ##    <chr>        <chr>               <int>        <int>  <int>
    ##  1 Baltimore    Maryland              211          344    133
    ##  2 Chicago      Illinois              411          478     67
    ##  3 Houston      Texas                 242          303     61
    ##  4 Cleveland    Ohio                   63          120     57
    ##  5 Washington   D.C.                  105          162     57
    ##  6 Milwaukee    Wisconsin              90          145     55
    ##  7 Philadelphia Pennsylvania          248          280     32
    ##  8 Kansas City  Missouri               78          109     31
    ##  9 Nashville    Tennessee              41           72     31
    ## 10 St. Louis    Missouri              159          188     29
    ## # … with 73 more rows
…
The `separate()` command uses a name of the existting column we want to
separate (`murder_year`), and the names of the columns that will contain
the separated values (`c("text", "year")`).

``` r
murders_separate <- murders_arranged %>%
    tidyr::separate(
        murder_year,
            into = c("text", 
                     "year"))
murders_separate
```

    ## # A tibble: 166 x 6
    ##    city      state   change text    year  murders
    ##    <chr>     <chr>    <int> <chr>   <chr>   <int>
    ##  1 Mobile    Alabama     -7 murders 2014       31
    ##  2 Mobile    Alabama     -7 murders 2015       24
    ##  3 Anchorage Alaska      14 murders 2014       12
    ##  4 Anchorage Alaska      14 murders 2015       26
    ##  5 Chandler  Arizona      0 murders 2014        1
    ##  6 Chandler  Arizona      0 murders 2015        1
    ##  7 Mesa      Arizona      3 murders 2014       13
    ##  8 Mesa      Arizona      3 murders 2015       16
    ##  9 Phoenix   Arizona     -2 murders 2014      114
    ## 10 Phoenix   Arizona     -2 murders 2015      112
    ## # … with 156 more rows
…
murders_final <- murders_spread %>%
unite(
    city_state, 
    city, 
    state) %>% 
        arrange(
            city_state
            ) %>% 
            select(
                -(text)
                )
murders_final
```

    ## # A tibble: 83 x 4
    ##    city_state             change `2014` `2015`
    ##    <chr>                   <int>  <int>  <int>
    ##  1 Albuquerque_New Mexico     13     30     43
    ##  2 Anaheim_California          4     14     18
    ##  3 Anchorage_Alaska           14     12     26
    ##  4 Arlington_Texas            -5     13      8
    ##  5 Atlanta_Georgia             1     93     94
    ##  6 Aurora_Colorado            13     11     24
    ##  7 Austin_Texas               -9     32     23
    ##  8 Bakersfield_California      5     17     22
    ##  9 Baltimore_Maryland        133    211    344
    ## 10 Boston_Massachusetts      -15     53     38
    ## # … with 73 more rows
…
