…
First we will use the `tbl_df` function from the
[`tibble`](https://tibble.tidyverse.org/) package to put the data set
into the working environment.

Quick tip: 1) to use a particular function within a package you can use
the syntax `package::function`

``` r
hiphop_cand_lyrics <- fivethirtyeight::hiphop_cand_lyrics %>% tbl_df
hiphop_cand_lyrics 
```

    #>  # A tibble: 377 x 8
    #>     candidate     song                 artist              sentiment
    #>     <chr>         <chr>                <chr>               <ord>    
    #>   1 Mike Huckabee None Shall Pass      Aesop Rock          neutral  
    #>   2 Mike Huckabee Wellstone            Soul Khan           negative 
    #>   3 Jeb Bush      Awe                  Dez & Nobs          neutral  
    #>   4 Jeb Bush      The Truth            Diabolic            negative 
    #>   5 Jeb Bush      Money Man            Gorilla Zoe         negative 
    #>   6 Jeb Bush      Hidden Agenda        K-Rino              negative 
    #>   7 Jeb Bush      Bricks and Marijuana Kase                neutral  
    #>   8 Jeb Bush      Bush Song            Macklemore          negative 
    #>   9 Jeb Bush      Shoot Me in the Head R.A. The Rugged Man negative 
    #>  10 Jeb Bush      Chamber of Fear      RZA                 neutral  
    #>     theme   album_release_da… line                     url                  
    #>     <chr>               <int> <chr>                    <chr>                
    #>   1 <NA>                 2011 Wither by the watering … http://genius.com/Ae…
    #>   2 <NA>                 2012 Might find the door but… http://genius.com/So…
    #>   3 <NA>                 2006 I heard Jeb Bush lookin… http://genius.com/De…
    #>   4 politi…              2006 What you heard before a… http://genius.com/Di…
    #>   5 person…              2007 I'm comin back from Flo… http://genius.com/Go…
    #>   6 politi…              2012 The Rockefeller's and t… http://genius.com/K-…
    #>   7 <NA>                 2001 When Jeb Bush pushing l… http://genius.com/Tr…
    #>   8 politi…              2005 Way to go Jeb, really g… http://genius.com/Ma…
    #>   9 politi…              2013 Obama nation, the Bushe… http://genius.com/Ra…
    #>  10 person…              2005 Bobby got Bush like Geo… http://genius.com/Rz…
    #>  # … with 367 more rows
…
``` r
(hiphop <- hiphop_cand_lyrics %>% 
    dplyr::select(
        candidate,
        date = album_release_date,
        song,
        artist,
        sentiment,
        theme,
        line))
```

    #>  # A tibble: 377 x 7
    #>     candidate      date song                 artist              sentiment
    #>     <chr>         <int> <chr>                <chr>               <ord>    
    #>   1 Mike Huckabee  2011 None Shall Pass      Aesop Rock          neutral  
    #>   2 Mike Huckabee  2012 Wellstone            Soul Khan           negative 
    #>   3 Jeb Bush       2006 Awe                  Dez & Nobs          neutral  
    #>   4 Jeb Bush       2006 The Truth            Diabolic            negative 
    #>   5 Jeb Bush       2007 Money Man            Gorilla Zoe         negative 
    #>   6 Jeb Bush       2012 Hidden Agenda        K-Rino              negative 
    #>   7 Jeb Bush       2001 Bricks and Marijuana Kase                neutral  
    #>   8 Jeb Bush       2005 Bush Song            Macklemore          negative 
    #>   9 Jeb Bush       2013 Shoot Me in the Head R.A. The Rugged Man negative 
    #>  10 Jeb Bush       2005 Chamber of Fear      RZA                 neutral  
    #>     theme     line                                                          
    #>     <chr>     <chr>                                                         
    #>   1 <NA>      Wither by the watering hole, Border patrol / What are we to H…
    #>   2 <NA>      Might find the door but never touch the key / They get tricke…
    #>   3 <NA>      I heard Jeb Bush looking for a (inaudible)                    
    #>   4 political What you heard before ain't as big of a lesson / As George an…
    #>   5 personal  I'm comin back from Florida / Wit Jeb Bush and his daughter   
    #>   6 political The Rockefeller's and the Bush family in the same box G / Hen…
    #>   7 <NA>      When Jeb Bush pushing life / If I tout my weapon              
    #>   8 political Way to go Jeb, really great strategy                          
    #>   9 political Obama nation, the Bushes, the Clintons or '80s Reaganomics / …
    #>  10 personal  Bobby got Bush like George and Jeb                            
    #>  # … with 367 more rows
…
