…
You'll see how a good naming convention can save you a ton of typing. 

## Select a single variable

The verbs for extracting or moving variables around are `dplyr::select()` or `dplyr::pull()`. For example, I can use both to pick out a single variable from a data frame (`StartDate`).

```{r select-1, eval=FALSE}
RawSurvey %>% dplyr::select(StartDate)
```

```{r out-1, eval=FALSE}
# # A tibble: 1,615 x 1
#    StartDate
#    <chr>
#  1 5/10/18 4:01
#  2 5/10/18 6:30
#  3 5/10/18 7:02
#  4 5/10/18 7:27
#  5 5/10/18 7:35
#  6 5/10/18 8:25
#  7 5/10/18 8:29
#  8 5/10/18 10:04
#  9 5/10/18 11:00
# 10 5/11/18 12:36
# # … with 1,605 more rows
```
…
# all else as NA ----
how_masc == "No answer" & q0018 == "No answer" ~ NA_character_)) %>%
    
    # check this new variable with select helpers
dplyr::select(q0018,
    dplyr::contains("masc"))
```

```{r case_when-masc_scale-out, eval=FALSE}
# # A tibble: 1,615 x 4
#    q0018     how_masc           masc_ind masc_scale
#    <chr>     <chr>              <lgl>    <chr>
#  1 Sometimes Somewhat masculine TRUE     moderate
#  2 Rarely    Somewhat masculine TRUE     NA
#  3 Sometimes Very masculine     TRUE     NA
#  4 Always    Very masculine     TRUE     high
#  5 Always    Very masculine     TRUE     high
#  6 Always    Very masculine     TRUE     high
#  7 Sometimes Somewhat masculine TRUE     moderate
#  8 Often     Somewhat masculine TRUE     moderate
#  9 Always    Very masculine     TRUE     high
# 10 Always    Somewhat masculine TRUE     NA
# # … with 1,605 more rows
```
…
