…
## Filtering responses 

The `dplyr::filter()` function works by including only rows that meet a condition in a logical statement (i.e. the condition is TRUE for that case). For example, if I wanted to only include respondents who describe their sexual orientation as `"Straight"` (question 26), I would use the following:

```{r filter-1, eval=FALSE}
MascSurveyData %>% 
    dplyr::filter(q0026 == "Straight")
```

```{r filter-1-out, eval=FALSE}
# # A tibble: 1,408 x 100
#       id start_date          end_date            how_masc how_important
#    <dbl> <dttm>              <dttm>              <chr>    <chr>        
#  1     2 2018-05-10 06:30:00 2018-05-10 06:53:00 Somewha… Somewhat imp…
#  2     3 2018-05-10 07:02:00 2018-05-10 07:09:00 Very ma… Not too impo…
#  3     5 2018-05-10 07:35:00 2018-05-10 07:42:00 Very ma… Very importa…
#  4     6 2018-05-10 08:25:00 2018-05-10 08:34:00 Very ma… Somewhat imp…
#  5     8 2018-05-10 10:04:00 2018-05-10 10:11:00 Somewha… Somewhat imp…
#  6     9 2018-05-10 11:00:00 2018-05-10 11:07:00 Very ma… Not at all i…
#  7    10 2018-05-11 12:36:00 2018-05-11 12:43:00 Somewha… Somewhat imp…
#  8    11 2018-05-11 03:07:00 2018-05-11 03:16:00 Very ma… Somewhat imp…
#  9    12 2018-05-11 05:18:00 2018-05-11 05:33:00 Somewha… Not too impo…
# 10    13 2018-05-11 05:50:00 2018-05-11 05:53:00 Very ma… Somewhat imp…
# # … with 1,398 more rows, and 95 more variables:
```
…
