…
## Extract rows by position with (slice)

The `dplyr::slice()` function uses numerical indices to retrive
observations from a data frame or tibble. This is similar to `head()`.

This will give me the 5th through the last observation in the
`MascSurveyData` data frame

``` r
MascSurveyData %>% dplyr::slice( 5:n())
```

    ## # A tibble: 1,611 x 100
    ##       id start_date          end_date            how_masc how_important
    ##    <dbl> <dttm>              <dttm>              <chr>    <chr>        
    ##  1     5 2018-05-10 07:35:00 2018-05-10 07:42:00 Very ma… Very importa…
    ##  2     6 2018-05-10 08:25:00 2018-05-10 08:34:00 Very ma… Somewhat imp…
    ##  3     7 2018-05-10 08:29:00 2018-05-10 08:41:00 Somewha… Not too impo…
    ##  4     8 2018-05-10 10:04:00 2018-05-10 10:11:00 Somewha… Somewhat imp…
    ##  5     9 2018-05-10 11:00:00 2018-05-10 11:07:00 Very ma… Not at all i…
    ##  6    10 2018-05-11 12:36:00 2018-05-11 12:43:00 Somewha… Somewhat imp…
    ##  7    11 2018-05-11 03:07:00 2018-05-11 03:16:00 Very ma… Somewhat imp…
    ##  8    12 2018-05-11 05:18:00 2018-05-11 05:33:00 Somewha… Not too impo…
    ##  9    13 2018-05-11 05:50:00 2018-05-11 05:53:00 Very ma… Somewhat imp…
    ## 10    14 2018-05-11 05:51:00 2018-05-11 06:21:00 Very ma… Very importa…
    ## # … with 1,601 more rows, and 95 more variables: q0004_0001 <chr>,
    ## #   q0004_0002 <chr>, q0004_0003 <chr>, q0004_0004 <chr>,
    ## #   q0004_0005 <chr>, q0004_0006 <chr>, q0005 <chr>, q0007_0001 <chr>,
    ## #   q0007_0002 <chr>, q0007_0003 <chr>, q0007_0004 <chr>,
    ## #   q0007_0005 <chr>, q0007_0006 <chr>, q0007_0007 <chr>,
    ## #   q0007_0008 <chr>, q0007_0009 <chr>, q0007_0010 <chr>,
    ## #   q0007_0011 <chr>, q0008_0001 <chr>, q0008_0002 <chr>,
    ## #   q0008_0003 <chr>, q0008_0004 <chr>, q0008_0005 <chr>,
    ## #   q0008_0006 <chr>, q0008_0007 <chr>, q0008_0008 <chr>,
…
## Filtering responses

The `dplyr::filter()` function works by including only rows that meet a
condition in a logical statement (i.e. the condition is TRUE for that
case). For example, if I wanted to only include respondents who describe
their sexual orientation as `"Straight"` (question 26), I would use the
following:

``` r
MascSurveyData %>% 
    dplyr::filter(q0026 == "Straight")
```

``` r
# # A tibble: 1,408 x 100
#       id start_date          end_date            how_masc how_important
#    <dbl> <dttm>              <dttm>              <chr>    <chr>        
#  1     2 2018-05-10 06:30:00 2018-05-10 06:53:00 Somewha… Somewhat imp…
#  2     3 2018-05-10 07:02:00 2018-05-10 07:09:00 Very ma… Not too impo…
#  3     5 2018-05-10 07:35:00 2018-05-10 07:42:00 Very ma… Very importa…
#  4     6 2018-05-10 08:25:00 2018-05-10 08:34:00 Very ma… Somewhat imp…
#  5     8 2018-05-10 10:04:00 2018-05-10 10:11:00 Somewha… Somewhat imp…
#  6     9 2018-05-10 11:00:00 2018-05-10 11:07:00 Very ma… Not at all i…
#  7    10 2018-05-11 12:36:00 2018-05-11 12:43:00 Somewha… Somewhat imp…
#  8    11 2018-05-11 03:07:00 2018-05-11 03:16:00 Very ma… Somewhat imp…
#  9    12 2018-05-11 05:18:00 2018-05-11 05:33:00 Somewha… Not too impo…
# 10    13 2018-05-11 05:50:00 2018-05-11 05:53:00 Very ma… Somewhat imp…
# # … with 1,398 more rows, and 95 more variables:
```
…
